Participant,Signature,Consent,EIF
Tajikistan,2002-05-21,2007-02-08,2007-05-03
Botswana,,2002-10-28,2004-05-17
Brazil,2001-05-23,2004-06-16,2004-09-14
Sweden,2001-05-23,2002-05-08,2004-05-17
Albania,2001-12-05,2004-10-04,2005-01-02
Guinea,2001-05-23,2007-12-11,2008-03-10
Luxembourg,2001-05-23,2003-02-07,2004-05-17
St. Vincent and the Grenadines,,2005-09-15,2005-12-14
Qatar,,2004-12-10,2005-03-10
Oman,2002-03-04,2005-01-19,2005-04-19
Mauritania,2001-08-08,2005-07-22,2005-10-20
Azerbaijan,,2004-01-13,2004-05-17
Côte d'Ivoire,2001-05-23,2004-01-20,2004-05-17
Liechtenstein,2001-05-23,2004-12-03,2005-03-03
Sao Tome and Principe,2002-04-03,2006-04-12,2006-07-11
Belgium,2001-05-23,2006-05-25,2006-08-23
Seychelles,2002-03-25,2008-06-03,2008-09-01
Samoa,2001-05-23,2002-02-04,2004-05-17
Panama,2001-05-23,2003-03-05,2004-05-17
Maldives,,2006-10-17,2007-01-15
Ukraine,2001-05-23,2007-09-25,2007-12-24
Venezuela (Bolivarian Republic of),,2005-04-19,2005-07-18
Venezuela (Bolivarian Republic of),,2017-07-21,
Trinidad and Tobago,,2002-12-13,2004-05-17
United States of America,2001-05-23,,
Cook Islands,,2004-06-29,2004-09-27
Kuwait,2001-05-23,2006-06-12,2006-09-10
Gambia,2001-05-23,2006-04-28,2006-07-27
United Republic of Tanzania,2001-05-23,2004-04-30,2004-07-29
Pakistan,2001-12-06,2008-04-17,2008-07-16
Lao People's Democratic Republic,2002-03-05,2006-06-28,2006-09-26
Canada,2001-05-23,2001-05-23,2004-05-17
Nicaragua,2001-05-23,2005-12-01,2006-03-01
Iran,2001-05-23,,
Slovakia,2001-05-23,2002-08-05,2004-05-17
Egypt,2002-05-17,2003-05-02,2004-05-17
Japan,,2002-08-30,2004-05-17
Namibia,,2005-06-24,2005-09-22
Solomon Islands,,2004-07-28,2004-10-26
United Kingdom of Great Britain and Northern Ireland,2001-12-11,2005-01-17,2005-04-17
Bulgaria,2001-05-23,2004-12-20,2005-03-20
Georgia,2001-05-23,2006-10-04,2007-01-02
Djibouti,2001-11-15,2004-03-11,2004-06-09
Eritrea,,2005-03-10,2005-06-08
St. Lucia,,2002-10-04,2004-05-17
Mozambique,2001-05-23,2005-10-31,2006-01-29
Uzbekistan,,2019-06-28,2019-09-26
Cameroon,2001-10-05,2009-05-19,2009-08-17
Honduras,2002-05-17,2005-05-23,2005-08-21
Netherlands,2001-05-23,2002-01-28,2004-05-17
Montenegro,,2011-03-31,2011-06-29
Indonesia,2001-05-23,2009-09-28,2009-12-27
Malawi,2002-05-22,2009-02-27,2009-05-28
Cyprus,,2005-03-07,2005-06-05
Portugal,2001-05-23,2004-07-15,2004-10-13
Germany,2001-05-23,2002-04-25,2004-05-17
Lebanon,2001-05-23,2003-01-03,2004-05-17
Guinea-Bissau,2002-04-24,2008-08-06,2008-11-04
Kyrgyzstan,2002-05-16,2006-12-12,2007-03-12
Republic of Moldova,2001-05-23,2004-04-07,2004-07-06
Lithuania,2002-05-17,2006-12-05,2007-03-05
Costa Rica,2002-04-16,2007-02-06,2007-05-07
Democratic People's Republic of Korea,,2002-08-26,2004-05-17
Latvia,2001-05-23,2004-10-28,2005-01-26
Colombia,2001-05-23,2008-10-22,2009-01-20
Cape Verde,,2006-03-01,2006-05-30
Serbia,,2009-07-31,2009-10-29
Burkina Faso,2001-05-23,2004-12-31,2005-03-31
Chile,2001-05-23,2005-01-20,2005-04-20
Singapore,2001-05-23,2005-05-24,2005-08-22
Antigua and Barbuda,2001-05-23,2003-09-10,2004-05-17
Somalia,,2010-07-26,2010-10-24
Swaziland,,2006-01-13,2006-04-13
Nepal,2002-04-05,2007-03-06,2007-06-04
Estonia,,2008-11-07,2009-02-05
Bolivia,2001-05-23,2003-06-03,2004-05-17
Belarus,,2004-02-03,2004-05-17
Slovenia,2001-05-23,2004-05-04,2004-08-02
Fiji,2001-06-14,2001-06-20,2004-05-17
Ireland,2001-05-23,2010-08-05,2010-11-03
Nigeria,2001-05-23,2004-05-24,2004-08-22
Saudi Arabia,2002-03-14,2012-07-25,2012-10-23
Benin,2001-05-23,2004-01-05,2004-05-17
Switzerland,2001-05-23,2003-07-30,2004-05-17
Micronesia (Federated States of),2001-07-31,2005-07-15,2005-10-13
Bahrain,2002-05-22,2006-01-31,2006-05-01
Lesotho,2002-01-23,2002-01-23,2004-05-17
Spain,2001-05-23,2004-05-28,2004-08-26
New Zealand,2001-05-23,2004-09-24,2004-12-23
The former Yugoslav Republic of Macedonia,2001-05-23,2004-05-27,2004-08-25
Iceland,2001-05-23,2002-05-29,2004-05-17
Nauru,2002-05-09,2002-05-09,2004-05-17
Guatemala,2002-01-29,2008-07-30,2008-10-28
Romania,2001-05-23,2004-10-28,2005-01-26
Gabon,2002-05-21,2007-05-07,2007-08-05
Suriname,2002-05-22,2011-09-20,2011-12-19
Niue,2002-03-12,2005-09-02,2005-12-01
Iran (Islamic Republic of),,2006-02-06,2006-05-07
Denmark,2001-05-23,2003-12-17,2004-05-17
Haiti,2001-05-23,,
Peru,2001-05-23,2005-09-14,2005-12-13
Viet Nam,2001-05-23,2002-07-22,2004-05-17
Uruguay,2001-05-23,2004-02-09,2004-05-17
Congo,2001-12-04,2007-02-12,2007-05-13
Iraq,,2016-03-08,2016-06-06
Dominica,,2003-08-08,2004-05-17
Turkey,2001-05-23,2009-10-14,2010-01-12
Yugoslavia (Federal Republic of),2002-05-02,,
Niger,2001-10-12,2006-04-12,2006-07-11
Greece,2001-05-23,2006-05-03,2006-08-01
Yemen,2001-12-05,2004-01-09,2004-05-17
Venezuela,2001-05-23,,
Papua New Guinea,2001-05-23,2003-10-07,2004-05-17
Liberia,,2002-05-23,2004-05-17
Croatia,2001-05-23,2007-01-30,2007-04-30
Ghana,2001-05-23,2003-05-30,2004-05-17
Togo,2001-05-23,2004-07-22,2004-10-20
Norway,2001-05-23,2002-07-11,2004-05-17
Senegal,2001-05-23,2003-10-08,2004-05-17
Guyana,,2007-09-12,2007-12-11
Paraguay,2001-10-12,2004-04-01,2004-06-30
Italy,2001-05-23,,
Sudan,2001-05-23,2006-08-29,2006-11-27
St. Kitts and Nevis,,2004-05-21,2004-08-19
China,2001-05-23,2004-08-13,2004-11-11
France,2001-05-23,2004-02-17,2004-05-17
Monaco,2001-05-23,2004-10-20,2005-01-18
Kenya,2001-05-23,2004-09-24,2004-12-23
Comoros,2001-05-23,2007-02-23,2007-05-24
Vanuatu,2002-05-21,2005-09-16,2005-12-15
Kazakhstan,2001-05-23,2007-11-09,2008-02-07
Cuba,2001-05-23,2007-12-21,2008-03-20
Philippines,2001-05-23,2004-02-27,2004-05-27
Libyan Arab Jamahiriya,,2005-06-14,2005-09-12
Jordan,2002-01-18,2004-11-08,2005-02-06
Central African Republic,2002-05-09,2008-02-12,2008-05-12
European Community,2001-05-23,2004-11-16,2005-02-14
Australia,2001-05-23,2004-05-20,2004-08-18
South Africa,2001-05-23,2002-09-04,2004-05-17
Belize,2002-05-14,2010-01-25,2010-04-25
Marshall Islands,,2003-01-27,2004-05-17
Bahamas,2002-03-20,2005-10-03,2006-01-01
Tuvalu,,2004-01-19,2004-05-17
Palau,2002-03-28,2011-09-08,2011-12-07
Bosnia and Herzegovina,2001-05-23,2010-03-30,2010-06-28
Burundi,2002-04-02,2005-08-02,2005-10-31
Syrian Arab Republic,2002-02-15,2005-08-05,2005-11-03
Tonga,2002-05-21,2009-10-23,2010-01-21
Czech Republic,2001-05-23,2002-08-06,2004-05-17
Afghanistan,,2013-02-20,2013-05-21
Algeria,2001-09-05,2006-09-22,2006-12-21
Zambia,2001-05-23,2006-07-07,2006-10-05
Brunei Darussalam,2002-05-21,,
Dominican Republic,2001-05-23,2007-05-04,2007-08-02
Malta,2001-05-23,2017-01-17,2017-04-17
Madagascar,2001-09-24,2005-11-18,2006-02-16
Ecuador,2001-08-28,2004-06-07,2004-09-05
Mexico,2001-05-23,2003-02-10,2004-05-17
Cambodia,2001-05-23,2006-08-25,2006-11-23
Malaysia,2002-05-16,,
Russian Federation,2002-05-22,2011-08-17,2011-11-15
Democratic Republic of the Congo,,2005-03-23,2005-06-21
Austria,2001-05-23,2002-08-27,2004-05-17
Poland,2001-05-23,2008-10-23,2009-01-21
Sierra Leone,,2003-09-26,2004-05-17
India,2002-05-14,2006-01-13,2006-04-13
Bangladesh,2001-05-23,2007-03-12,2007-06-10
United Arab Emirates,2001-05-23,2002-07-11,2004-05-17
El Salvador,2001-07-30,2008-05-27,2008-08-25
Uganda,,2004-07-20,2004-10-18
Jamaica,2001-05-23,2007-06-01,2007-08-30
Mongolia,2002-05-17,2004-04-30,2004-07-29
Morocco,2001-05-23,2004-06-15,2004-09-13
Kiribati,2002-04-04,2004-09-07,2004-12-06
Ethiopia,2002-05-17,2003-01-09,2004-05-17
Angola,,2006-10-23,2007-01-21
Argentina,2001-05-23,2005-01-25,2005-04-25
Thailand,2002-05-22,2005-01-31,2005-05-01
Rwanda,,2002-06-05,2004-05-17
Mali,2001-05-23,2003-09-05,2004-05-17
Zimbabwe,2001-05-23,2012-03-01,2012-05-30
Tunisia,2001-05-23,2004-06-17,2004-09-15
Myanmar,,2004-04-19,2004-07-18
Israel,2001-07-30,,
Finland,2001-05-23,2002-09-03,2004-05-17
Chad,2002-05-16,2004-03-10,2004-06-08
Armenia,2001-05-23,2003-11-26,2004-05-17
Republic of Korea,2001-10-04,2007-01-25,2007-04-25
Grenada,,2021-10-15,2022-01-13
State of Palestine,,2017-12-29,2018-03-29
Equatorial Guinea,,2019-12-24,2020-03-23
Barbados,,2004-06-07,2004-09-05
Sri Lanka,2001-09-05,2005-12-22,2006-03-22
Mauritius,2001-05-23,2004-07-13,2004-10-11
Hungary,2001-05-23,2008-03-14,2008-06-12
